module gitlab.com/radiofrance/s3-exporter

go 1.23.4

require (
	github.com/aws/aws-sdk-go-v2/config v1.29.4
	github.com/aws/aws-sdk-go-v2/credentials v1.17.57
	github.com/aws/aws-sdk-go-v2/service/s3 v1.74.0
	github.com/gorilla/mux v1.8.1
	github.com/kelseyhightower/envconfig v1.4.0
	github.com/prometheus/client_golang v1.20.5
)

require (
	github.com/aws/aws-sdk-go-v2 v1.36.0 // indirect
	github.com/aws/aws-sdk-go-v2/aws/protocol/eventstream v1.6.7 // indirect
	github.com/aws/aws-sdk-go-v2/feature/ec2/imds v1.16.27 // indirect
	github.com/aws/aws-sdk-go-v2/internal/configsources v1.3.31 // indirect
	github.com/aws/aws-sdk-go-v2/internal/endpoints/v2 v2.6.31 // indirect
	github.com/aws/aws-sdk-go-v2/internal/ini v1.8.2 // indirect
	github.com/aws/aws-sdk-go-v2/internal/v4a v1.3.28 // indirect
	github.com/aws/aws-sdk-go-v2/service/internal/accept-encoding v1.12.2 // indirect
	github.com/aws/aws-sdk-go-v2/service/internal/checksum v1.5.2 // indirect
	github.com/aws/aws-sdk-go-v2/service/internal/presigned-url v1.12.12 // indirect
	github.com/aws/aws-sdk-go-v2/service/internal/s3shared v1.18.9 // indirect
	github.com/aws/aws-sdk-go-v2/service/sso v1.24.14 // indirect
	github.com/aws/aws-sdk-go-v2/service/ssooidc v1.28.13 // indirect
	github.com/aws/aws-sdk-go-v2/service/sts v1.33.12 // indirect
	github.com/aws/smithy-go v1.22.2 // indirect
	github.com/beorn7/perks v1.0.1 // indirect
	github.com/cespare/xxhash/v2 v2.3.0 // indirect
	github.com/klauspost/compress v1.17.9 // indirect
	github.com/munnerz/goautoneg v0.0.0-20191010083416-a7dc8b61c822 // indirect
	github.com/prometheus/client_model v0.6.1 // indirect
	github.com/prometheus/common v0.55.0 // indirect
	github.com/prometheus/procfs v0.15.1 // indirect
	golang.org/x/sys v0.22.0 // indirect
	google.golang.org/protobuf v1.34.2 // indirect
)
